// Jest Snapshot v1, https://goo.gl/fbAQLP

exports[`card toolbar displays toolbar items in correct order for blockCard 1`] = `
Array [
  Object {
    "render": [Function],
    "type": "custom",
  },
  Object {
    "type": "separator",
  },
  Object {
    "id": "editor.link.edit",
    "metadata": Object {
      "title": null,
      "url": "http://www.atlassian.com/",
    },
    "onClick": [Function],
    "selected": false,
    "showTitle": true,
    "testId": "link-toolbar-edit-link-button",
    "title": "Edit link",
    "type": "button",
  },
  Object {
    "type": "separator",
  },
  Object {
    "className": "hyperlink-open-link",
    "icon": [Function],
    "id": "editor.link.openLink",
    "metadata": Object {
      "title": null,
      "url": "http://www.atlassian.com/",
    },
    "onClick": [Function],
    "title": "Open link in a new tab",
    "type": "button",
  },
  Object {
    "type": "separator",
  },
  Object {
    "appearance": "danger",
    "icon": [Function],
    "id": "editor.link.delete",
    "onClick": [Function],
    "onMouseEnter": [Function],
    "onMouseLeave": [Function],
    "title": "Remove",
    "type": "button",
  },
]
`;

exports[`card toolbar displays toolbar items in correct order for embedCard 1`] = `
Array [
  Object {
    "render": [Function],
    "type": "custom",
  },
  Object {
    "type": "separator",
  },
  Object {
    "icon": [Function],
    "id": "editor.media.alignLeft",
    "onClick": [Function],
    "selected": false,
    "title": "Align left",
    "type": "button",
  },
  Object {
    "icon": [Function],
    "id": "editor.media.alignCenter",
    "onClick": [Function],
    "selected": true,
    "title": "Align center",
    "type": "button",
  },
  Object {
    "icon": [Function],
    "id": "editor.media.alignRight",
    "onClick": [Function],
    "selected": false,
    "title": "Align right",
    "type": "button",
  },
  Object {
    "type": "separator",
  },
  Object {
    "icon": [Function],
    "id": "editor.media.wrapLeft",
    "onClick": [Function],
    "selected": false,
    "title": "Wrap left",
    "type": "button",
  },
  Object {
    "icon": [Function],
    "id": "editor.media.wrapRight",
    "onClick": [Function],
    "selected": false,
    "title": "Wrap right",
    "type": "button",
  },
  Object {
    "type": "separator",
  },
  Object {
    "id": "editor.link.edit",
    "metadata": Object {
      "title": undefined,
      "url": "http://www.atlassian.com/",
    },
    "onClick": [Function],
    "selected": false,
    "showTitle": true,
    "testId": "link-toolbar-edit-link-button",
    "title": "Edit link",
    "type": "button",
  },
  Object {
    "type": "separator",
  },
  Object {
    "className": "hyperlink-open-link",
    "icon": [Function],
    "id": "editor.link.openLink",
    "metadata": Object {
      "title": undefined,
      "url": "http://www.atlassian.com/",
    },
    "onClick": [Function],
    "title": "Open link in a new tab",
    "type": "button",
  },
  Object {
    "type": "separator",
  },
  Object {
    "appearance": "danger",
    "icon": [Function],
    "id": "editor.link.delete",
    "onClick": [Function],
    "onMouseEnter": [Function],
    "onMouseLeave": [Function],
    "title": "Remove",
    "type": "button",
  },
]
`;

exports[`card toolbar displays toolbar items in correct order for embedCard inside an expand 1`] = `
Array [
  Object {
    "id": "editor.link.edit",
    "metadata": Object {
      "title": undefined,
      "url": undefined,
    },
    "onClick": [Function],
    "selected": false,
    "showTitle": true,
    "testId": "link-toolbar-edit-link-button",
    "title": "Edit link",
    "type": "button",
  },
  Object {
    "type": "separator",
  },
  Object {
    "className": "hyperlink-open-link",
    "icon": [Function],
    "id": "editor.link.openLink",
    "metadata": Object {
      "title": undefined,
      "url": undefined,
    },
    "onClick": [Function],
    "title": "Open link in a new tab",
    "type": "button",
  },
  Object {
    "type": "separator",
  },
  Object {
    "appearance": "danger",
    "icon": [Function],
    "id": "editor.link.delete",
    "onClick": [Function],
    "onMouseEnter": [Function],
    "onMouseLeave": [Function],
    "title": "Remove",
    "type": "button",
  },
]
`;

exports[`card toolbar displays toolbar items in correct order for inlineCard 1`] = `
Array [
  Object {
    "render": [Function],
    "type": "custom",
  },
  Object {
    "type": "separator",
  },
  Object {
    "id": "editor.link.edit",
    "metadata": Object {
      "title": null,
      "url": "http://www.atlassian.com/",
    },
    "onClick": [Function],
    "selected": false,
    "showTitle": true,
    "testId": "link-toolbar-edit-link-button",
    "title": "Edit link",
    "type": "button",
  },
  Object {
    "type": "separator",
  },
  Object {
    "className": "hyperlink-open-link",
    "icon": [Function],
    "id": "editor.link.openLink",
    "metadata": Object {
      "title": null,
      "url": "http://www.atlassian.com/",
    },
    "onClick": [Function],
    "title": "Open link in a new tab",
    "type": "button",
  },
  Object {
    "type": "separator",
  },
  Object {
    "icon": [Function],
    "id": "editor.link.unlink",
    "onClick": [Function],
    "title": "Unlink",
    "type": "button",
  },
  Object {
    "appearance": "danger",
    "icon": [Function],
    "id": "editor.link.delete",
    "onClick": [Function],
    "onMouseEnter": [Function],
    "onMouseLeave": [Function],
    "title": "Remove",
    "type": "button",
  },
]
`;

exports[`card toolbar metadata correctly resolves url and title from plugin state 1`] = `
Array [
  Object {
    "id": "editor.link.edit",
    "metadata": Object {
      "title": "hey hey hey",
      "url": "http://www.atlassian.com/",
    },
    "onClick": [Function],
    "selected": false,
    "showTitle": true,
    "testId": "link-toolbar-edit-link-button",
    "title": "Edit link",
    "type": "button",
  },
  Object {
    "className": "hyperlink-open-link",
    "icon": [Function],
    "id": "editor.link.openLink",
    "metadata": Object {
      "title": "hey hey hey",
      "url": "http://www.atlassian.com/",
    },
    "onClick": [Function],
    "title": "Open link in a new tab",
    "type": "button",
  },
]
`;
